POLS 7012
…
--

- In Part 1 of the course, we'll learn how to collect, tidy, and describe datasets.

---

## Part 1: Discovery

```r
dataset
```

```
# A tibble: 100 x 3
   temperature hospitalized died 
         <dbl> <chr>        <chr>
 1       103.  Yes          No   
 2        98.9 No           No   
 3       101.  No           Yes  
 4       101.  Yes          Yes  
 5       101.  Yes          No   
 6        99.8 No           No   
 7       103.  Yes          Yes  
 8        99.8 No           No   
 9       104.  Yes          Yes  
10        99.9 No           No   
# ... with 90 more rows
```
…
